{
  "minMuleVersion": "4.1.1",
  "extensionModel": {
    "types": [
      {
        "format": "java",
        "annotations": {
          "typeDsl": {
            "allowTopLevelDefinition": false,
            "allowInlineDefinition": true,
            "substitutionGroup": {
              "prefix": "mule",
              "element": "abstract-private-object-store"
            },
            "dslBaseType": {
              "prefix": "mule",
              "element": "abstractObjectStoreType"
            }
          },
          "classInformation": {
            "implementedInterfaces": [],
            "parent": "org.mule.extension.objectstore.api.ExtensionObjectStore",
            "classname": "org.mule.extension.objectstore.api.PrivateObjectStore",
            "hasDefaultConstructor": true,
            "isInstantiable": true,
            "isFinal": false,
            "genericTypes": [],
            "isInterface": false,
            "isAbstract": false,
            "isMap": false
          },
          "typeId": "org.mule.extension.objectstore.api.PrivateObjectStore",
          "stereotype": {"allowedStereotypes": [{
            "namespace": "OS",
            "type": "OBJECT_STORE"
          }]},
          "typeAlias": {"value": "privateObjectStore"}
        },
        "type": "Object",
        "fields": [
          {
            "annotations": {
              "layout": {"layoutModel": {
                "password": false,
                "tabName": "Advanced",
                "query": false,
                "text": false
              }},
              "expressionSupport": {"value": "NOT_SUPPORTED"}
            },
            "model": {"type": "String"},
            "key": {"name": "alias"}
          },
          {
            "annotations": {
              "default": "true",
              "expressionSupport": {"value": "NOT_SUPPORTED"}
            },
            "model": {
              "annotations": {"typeId": "boolean"},
              "type": "Boolean"
            },
            "key": {"name": "persistent"}
          },
          {
            "annotations": {"expressionSupport": {"value": "NOT_SUPPORTED"}},
            "model": {
              "annotations": {
                "classInformation": {
                  "implementedInterfaces": ["java.lang.Comparable"],
                  "parent": "java.lang.Number",
                  "classname": "java.lang.Integer",
                  "hasDefaultConstructor": false,
                  "isInstantiable": false,
                  "isFinal": true,
                  "genericTypes": [],
                  "isInterface": false,
                  "isAbstract": false,
                  "isMap": false
                },
                "int": {}
              },
              "type": "Number"
            },
            "key": {"name": "maxEntries"}
          },
          {
            "annotations": {"expressionSupport": {"value": "NOT_SUPPORTED"}},
            "model": {
              "annotations": {
                "classInformation": {
                  "implementedInterfaces": ["java.lang.Comparable"],
                  "parent": "java.lang.Number",
                  "classname": "java.lang.Long",
                  "hasDefaultConstructor": false,
                  "isInstantiable": false,
                  "isFinal": true,
                  "genericTypes": [],
                  "isInterface": false,
                  "isAbstract": false,
                  "isMap": false
                },
                "int": {}
              },
              "type": "Number"
            },
            "key": {"name": "entryTtl"}
          },
          {
            "annotations": {
              "default": "SECONDS",
              "expressionSupport": {"value": "NOT_SUPPORTED"}
            },
            "model": {
              "annotations": {
                "typeId": "java.util.concurrent.TimeUnit",
                "enum": {
                  "values": [
                    "NANOSECONDS",
                    "MICROSECONDS",
                    "MILLISECONDS",
                    "SECONDS",
                    "MINUTES",
                    "HOURS",
                    "DAYS"
                  ],
                  "type": "[Ljava.lang.String;"
                }
              },
              "type": "String"
            },
            "key": {"name": "entryTtlUnit"}
          },
          {
            "annotations": {
              "default": "1",
              "expressionSupport": {"value": "NOT_SUPPORTED"}
            },
            "model": {
              "annotations": {
                "classInformation": {
                  "implementedInterfaces": ["java.lang.Comparable"],
                  "parent": "java.lang.Number",
                  "classname": "java.lang.Long",
                  "hasDefaultConstructor": false,
                  "isInstantiable": false,
                  "isFinal": true,
                  "genericTypes": [],
                  "isInterface": false,
                  "isAbstract": false,
                  "isMap": false
                },
                "int": {}
              },
              "type": "Number"
            },
            "key": {"name": "expirationInterval"}
          },
          {
            "annotations": {
              "default": "MINUTES",
              "expressionSupport": {"value": "NOT_SUPPORTED"}
            },
            "model": {
              "annotations": {
                "typeId": "java.util.concurrent.TimeUnit",
                "enum": {
                  "values": [
                    "NANOSECONDS",
                    "MICROSECONDS",
                    "MILLISECONDS",
                    "SECONDS",
                    "MINUTES",
                    "HOURS",
                    "DAYS"
                  ],
                  "type": "[Ljava.lang.String;"
                }
              },
              "type": "String"
            },
            "key": {"name": "expirationIntervalUnit"}
          },
          {
            "annotations": {
              "display": {"displayModel": {"displayName": "Configuration Reference"}},
              "parameterDsl": {
                "allowInlineDefinition": false,
                "allowReferences": true
              },
              "stereotype": {"allowedStereotypes": [{
                "parent": {
                  "namespace": "MULE",
                  "type": "MODULE_CONFIG"
                },
                "namespace": "OS",
                "type": "CONFIG"
              }]},
              "expressionSupport": {"value": "NOT_SUPPORTED"}
            },
            "model": {
              "annotations": {
                "classInformation": {
                  "implementedInterfaces": [],
                  "parent": "",
                  "classname": "org.mule.extension.objectstore.internal.ObjectStoreConnector",
                  "hasDefaultConstructor": true,
                  "isInstantiable": true,
                  "isFinal": false,
                  "genericTypes": [],
                  "isInterface": false,
                  "isAbstract": false,
                  "isMap": false
                },
                "typeId": "org.mule.extension.objectstore.internal.ObjectStoreConnector",
                "typeAlias": {"value": "ObjectStoreConnector"}
              },
              "type": "Object",
              "fields": [{
                "annotations": {"visibility": "READ_ONLY"},
                "model": {"type": "String"},
                "key": {"name": "configName"}
              }]
            },
            "key": {"name": "config-ref"}
          }
        ]
      },
      {
        "format": "java",
        "annotations": {
          "typeDsl": {
            "allowTopLevelDefinition": true,
            "allowInlineDefinition": false,
            "substitutionGroup": {
              "prefix": "mule",
              "element": "global-abstract-object-store"
            },
            "dslBaseType": {
              "prefix": "mule",
              "element": "abstractObjectStoreType"
            }
          },
          "classInformation": {
            "implementedInterfaces": [],
            "parent": "org.mule.extension.objectstore.api.ExtensionObjectStore",
            "classname": "org.mule.extension.objectstore.api.TopLevelObjectStore",
            "hasDefaultConstructor": true,
            "isInstantiable": true,
            "isFinal": false,
            "genericTypes": [],
            "isInterface": false,
            "isAbstract": false,
            "isMap": false
          },
          "typeId": "org.mule.extension.objectstore.api.TopLevelObjectStore",
          "stereotype": {"allowedStereotypes": [{
            "namespace": "OS",
            "type": "OBJECT_STORE"
          }]},
          "typeAlias": {"value": "objectStore"}
        },
        "type": "Object",
        "fields": [
          {
            "annotations": {
              "default": "true",
              "expressionSupport": {"value": "NOT_SUPPORTED"}
            },
            "model": {
              "annotations": {"typeId": "boolean"},
              "type": "Boolean"
            },
            "key": {"name": "persistent"}
          },
          {
            "annotations": {"expressionSupport": {"value": "NOT_SUPPORTED"}},
            "model": {
              "annotations": {
                "classInformation": {
                  "implementedInterfaces": ["java.lang.Comparable"],
                  "parent": "java.lang.Number",
                  "classname": "java.lang.Integer",
                  "hasDefaultConstructor": false,
                  "isInstantiable": false,
                  "isFinal": true,
                  "genericTypes": [],
                  "isInterface": false,
                  "isAbstract": false,
                  "isMap": false
                },
                "int": {}
              },
              "type": "Number"
            },
            "key": {"name": "maxEntries"}
          },
          {
            "annotations": {"expressionSupport": {"value": "NOT_SUPPORTED"}},
            "model": {
              "annotations": {
                "classInformation": {
                  "implementedInterfaces": ["java.lang.Comparable"],
                  "parent": "java.lang.Number",
                  "classname": "java.lang.Long",
                  "hasDefaultConstructor": false,
                  "isInstantiable": false,
                  "isFinal": true,
                  "genericTypes": [],
                  "isInterface": false,
                  "isAbstract": false,
                  "isMap": false
                },
                "int": {}
              },
              "type": "Number"
            },
            "key": {"name": "entryTtl"}
          },
          {
            "annotations": {
              "default": "SECONDS",
              "expressionSupport": {"value": "NOT_SUPPORTED"}
            },
            "model": {
              "annotations": {
                "typeId": "java.util.concurrent.TimeUnit",
                "enum": {
                  "values": [
                    "NANOSECONDS",
                    "MICROSECONDS",
                    "MILLISECONDS",
                    "SECONDS",
                    "MINUTES",
                    "HOURS",
                    "DAYS"
                  ],
                  "type": "[Ljava.lang.String;"
                }
              },
              "type": "String"
            },
            "key": {"name": "entryTtlUnit"}
          },
          {
            "annotations": {
              "default": "1",
              "expressionSupport": {"value": "NOT_SUPPORTED"}
            },
            "model": {
              "annotations": {
                "classInformation": {
                  "implementedInterfaces": ["java.lang.Comparable"],
                  "parent": "java.lang.Number",
                  "classname": "java.lang.Long",
                  "hasDefaultConstructor": false,
                  "isInstantiable": false,
                  "isFinal": true,
                  "genericTypes": [],
                  "isInterface": false,
                  "isAbstract": false,
                  "isMap": false
                },
                "int": {}
              },
              "type": "Number"
            },
            "key": {"name": "expirationInterval"}
          },
          {
            "annotations": {
              "default": "MINUTES",
              "expressionSupport": {"value": "NOT_SUPPORTED"}
            },
            "model": {
              "annotations": {
                "typeId": "java.util.concurrent.TimeUnit",
                "enum": {
                  "values": [
                    "NANOSECONDS",
                    "MICROSECONDS",
                    "MILLISECONDS",
                    "SECONDS",
                    "MINUTES",
                    "HOURS",
                    "DAYS"
                  ],
                  "type": "[Ljava.lang.String;"
                }
              },
              "type": "String"
            },
            "key": {"name": "expirationIntervalUnit"}
          },
          {
            "annotations": {
              "display": {"displayModel": {"displayName": "Configuration Reference"}},
              "parameterDsl": {
                "allowInlineDefinition": false,
                "allowReferences": true
              },
              "stereotype": {"allowedStereotypes": [{
                "parent": {
                  "namespace": "MULE",
                  "type": "MODULE_CONFIG"
                },
                "namespace": "OS",
                "type": "CONFIG"
              }]},
              "expressionSupport": {"value": "NOT_SUPPORTED"}
            },
            "model": {
              "annotations": {
                "classInformation": {
                  "implementedInterfaces": [],
                  "parent": "",
                  "classname": "org.mule.extension.objectstore.internal.ObjectStoreConnector",
                  "hasDefaultConstructor": true,
                  "isInstantiable": true,
                  "isFinal": false,
                  "genericTypes": [],
                  "isInterface": false,
                  "isAbstract": false,
                  "isMap": false
                },
                "typeId": "org.mule.extension.objectstore.internal.ObjectStoreConnector",
                "typeAlias": {"value": "ObjectStoreConnector"}
              },
              "type": "Object",
              "fields": [{
                "annotations": {"visibility": "READ_ONLY"},
                "model": {"type": "String"},
                "key": {"name": "configName"}
              }]
            },
            "key": {"name": "config-ref"}
          }
        ]
      }
    ],
    "messageSources": [],
    "functions": [],
    "configurations": [{
      "externalLibraryModels": [],
      "operations": [],
      "messageSources": [],
      "name": "config",
      "description": "Default configuration",
      "modelProperties": {"requiredForMetadata": {"requiredParameters": ["name"]}},
      "stereotype": {
        "parent": {
          "namespace": "MULE",
          "type": "MODULE_CONFIG"
        },
        "namespace": "OS",
        "type": "CONFIG"
      },
      "parameterGroupModels": [{
        "name": "General",
        "layoutModel": {
          "password": false,
          "query": false,
          "text": false,
          "order": 1
        },
        "description": "",
        "modelProperties": {},
        "parameters": [{
          "role": "BEHAVIOUR",
          "description": "The identifier of this element used to reference it in other components",
          "modelProperties": {},
          "type": {
            "format": "java",
            "type": "String"
          },
          "required": true,
          "expressionSupport": "NOT_SUPPORTED",
          "hasDynamicType": false,
          "isConfigOverride": false,
          "dslConfiguration": {
            "allowTopLevelDefinition": false,
            "allowsInlineDefinition": false,
            "allowsReferences": false
          },
          "name": "name",
          "layoutModel": {
            "password": false,
            "query": false,
            "text": false,
            "order": 1
          },
          "allowedStereotypeModels": [],
          "isComponentId": true
        }],
        "exclusiveParametersModels": [],
        "showInDsl": false
      }],
      "connectionProviders": [{
        "externalLibraryModels": [],
        "connectionManagementType": "NONE",
        "supportsConnectivityTesting": true,
        "name": "connection",
        "description": "A ConnectionProvider which returns the runtime's default ObjectStoreManager",
        "modelProperties": {},
        "stereotype": {
          "parent": {
            "namespace": "MULE",
            "type": "CONNECTION"
          },
          "namespace": "OS",
          "type": "CONNECTION"
        },
        "parameterGroupModels": [{
          "name": "Connection",
          "layoutModel": {
            "password": false,
            "query": false,
            "text": false,
            "order": 1
          },
          "description": "",
          "modelProperties": {},
          "parameters": [{
            "role": "BEHAVIOUR",
            "description": "When the application is deployed, a connectivity test is performed on all connectors. If set to true, deployment will fail if the test doesn't pass after exhausting the associated reconnection strategy",
            "modelProperties": {
              "org.mule.runtime.extension.api.property.InfrastructureParameterModelProperty": {"sequence": 3},
              "org.mule.runtime.extension.api.property.QNameModelProperty": {"value": {
                "localPart": "reconnection",
                "prefix": "mule",
                "namespaceURI": "http://www.mulesoft.org/schema/mule/core"
              }}
            },
            "type": {
              "format": "java",
              "annotations": {"typeId": "Reconnection"},
              "type": "Object",
              "fields": [
                {
                  "annotations": {"description": {"value": "When the application is deployed, a connectivity test is performed on all connectors. If set to true, deployment will fail if the test doesn't pass after exhausting the associated reconnection strategy"}},
                  "model": {
                    "annotations": {"default": "false"},
                    "type": "Boolean"
                  },
                  "key": {"name": "failsDeployment"}
                },
                {
                  "annotations": {"description": {"value": "The reconnection strategy to use"}},
                  "model": {
                    "of": [
                      {
                        "annotations": {"typeId": "reconnect"},
                        "type": "Object",
                        "fields": [
                          {
                            "annotations": {"description": {"value": "How often (in ms) to reconnect"}},
                            "model": {
                              "annotations": {
                                "default": "2000",
                                "classInformation": {
                                  "implementedInterfaces": ["java.lang.Comparable"],
                                  "parent": "java.lang.Number",
                                  "classname": "java.lang.Long",
                                  "hasDefaultConstructor": false,
                                  "isInstantiable": false,
                                  "isFinal": true,
                                  "genericTypes": [],
                                  "isInterface": false,
                                  "isAbstract": false,
                                  "isMap": false
                                },
                                "int": {}
                              },
                              "type": "Number"
                            },
                            "key": {"name": "frequency"}
                          },
                          {
                            "annotations": {"description": {"value": "If false, the reconnection strategy will run in a separate, non-blocking thread"}},
                            "model": {
                              "annotations": {"default": "true"},
                              "type": "Boolean"
                            },
                            "key": {"name": "blocking"}
                          },
                          {
                            "annotations": {"description": {"value": "How many reconnection attempts to make"}},
                            "model": {
                              "annotations": {
                                "default": "2",
                                "int": {}
                              },
                              "type": "Number"
                            },
                            "key": {"name": "count"}
                          }
                        ]
                      },
                      {
                        "annotations": {"typeId": "reconnect-forever"},
                        "type": "Object",
                        "fields": [
                          {
                            "annotations": {"description": {"value": "How often (in ms) to reconnect"}},
                            "model": {
                              "annotations": {
                                "default": "2000",
                                "classInformation": {
                                  "implementedInterfaces": ["java.lang.Comparable"],
                                  "parent": "java.lang.Number",
                                  "classname": "java.lang.Long",
                                  "hasDefaultConstructor": false,
                                  "isInstantiable": false,
                                  "isFinal": true,
                                  "genericTypes": [],
                                  "isInterface": false,
                                  "isAbstract": false,
                                  "isMap": false
                                },
                                "int": {}
                              },
                              "type": "Number"
                            },
                            "key": {"name": "frequency"}
                          },
                          {
                            "annotations": {"description": {"value": "If false, the reconnection strategy will run in a separate, non-blocking thread"}},
                            "model": {
                              "annotations": {"default": "true"},
                              "type": "Boolean"
                            },
                            "key": {"name": "blocking"}
                          }
                        ]
                      }
                    ],
                    "annotations": {"typeId": "ReconnectionStrategy"},
                    "type": "Union"
                  },
                  "key": {"name": "reconnectionStrategy"}
                }
              ]
            },
            "required": false,
            "expressionSupport": "NOT_SUPPORTED",
            "hasDynamicType": false,
            "isConfigOverride": false,
            "dslConfiguration": {
              "allowTopLevelDefinition": false,
              "allowsInlineDefinition": true,
              "allowsReferences": false
            },
            "name": "reconnection",
            "layoutModel": {
              "password": false,
              "tabName": "Advanced",
              "query": false,
              "text": false,
              "order": 1
            },
            "allowedStereotypeModels": [],
            "isComponentId": false
          }],
          "exclusiveParametersModels": [],
          "showInDsl": false
        }]
      }]
    }],
    "externalLibraries": [],
    "description": "Connector that provides functionality to access and create ObjectStore instances.",
    "resources": [],
    "subTypes": [{
      "subTypes": [
        {
          "format": "java",
          "type": "@ref:org.mule.extension.objectstore.api.TopLevelObjectStore"
        },
        {
          "format": "java",
          "type": "@ref:org.mule.extension.objectstore.api.PrivateObjectStore"
        }
      ],
      "baseType": {
        "format": "java",
        "type": "@ref:org.mule.runtime.api.store.ObjectStore"
      }
    }],
    "modelProperties": {},
    "constructs": [],
    "connectionProviders": [{
      "externalLibraryModels": [],
      "connectionManagementType": "NONE",
      "supportsConnectivityTesting": true,
      "name": "connection",
      "description": "A ConnectionProvider which returns the runtime's default ObjectStoreManager",
      "modelProperties": {},
      "stereotype": {
        "parent": {
          "namespace": "MULE",
          "type": "CONNECTION"
        },
        "namespace": "OS",
        "type": "CONNECTION"
      },
      "parameterGroupModels": [{
        "name": "Connection",
        "layoutModel": {
          "password": false,
          "query": false,
          "text": false,
          "order": 1
        },
        "description": "",
        "modelProperties": {},
        "parameters": [{
          "role": "BEHAVIOUR",
          "description": "When the application is deployed, a connectivity test is performed on all connectors. If set to true, deployment will fail if the test doesn't pass after exhausting the associated reconnection strategy",
          "modelProperties": {
            "org.mule.runtime.extension.api.property.InfrastructureParameterModelProperty": {"sequence": 3},
            "org.mule.runtime.extension.api.property.QNameModelProperty": {"value": {
              "localPart": "reconnection",
              "prefix": "mule",
              "namespaceURI": "http://www.mulesoft.org/schema/mule/core"
            }}
          },
          "type": {
            "format": "java",
            "annotations": {"typeId": "Reconnection"},
            "type": "Object",
            "fields": [
              {
                "annotations": {"description": {"value": "When the application is deployed, a connectivity test is performed on all connectors. If set to true, deployment will fail if the test doesn't pass after exhausting the associated reconnection strategy"}},
                "model": {
                  "annotations": {"default": "false"},
                  "type": "Boolean"
                },
                "key": {"name": "failsDeployment"}
              },
              {
                "annotations": {"description": {"value": "The reconnection strategy to use"}},
                "model": {
                  "of": [
                    {
                      "annotations": {"typeId": "reconnect"},
                      "type": "Object",
                      "fields": [
                        {
                          "annotations": {"description": {"value": "How often (in ms) to reconnect"}},
                          "model": {
                            "annotations": {
                              "default": "2000",
                              "classInformation": {
                                "implementedInterfaces": ["java.lang.Comparable"],
                                "parent": "java.lang.Number",
                                "classname": "java.lang.Long",
                                "hasDefaultConstructor": false,
                                "isInstantiable": false,
                                "isFinal": true,
                                "genericTypes": [],
                                "isInterface": false,
                                "isAbstract": false,
                                "isMap": false
                              },
                              "int": {}
                            },
                            "type": "Number"
                          },
                          "key": {"name": "frequency"}
                        },
                        {
                          "annotations": {"description": {"value": "If false, the reconnection strategy will run in a separate, non-blocking thread"}},
                          "model": {
                            "annotations": {"default": "true"},
                            "type": "Boolean"
                          },
                          "key": {"name": "blocking"}
                        },
                        {
                          "annotations": {"description": {"value": "How many reconnection attempts to make"}},
                          "model": {
                            "annotations": {
                              "default": "2",
                              "int": {}
                            },
                            "type": "Number"
                          },
                          "key": {"name": "count"}
                        }
                      ]
                    },
                    {
                      "annotations": {"typeId": "reconnect-forever"},
                      "type": "Object",
                      "fields": [
                        {
                          "annotations": {"description": {"value": "How often (in ms) to reconnect"}},
                          "model": {
                            "annotations": {
                              "default": "2000",
                              "classInformation": {
                                "implementedInterfaces": ["java.lang.Comparable"],
                                "parent": "java.lang.Number",
                                "classname": "java.lang.Long",
                                "hasDefaultConstructor": false,
                                "isInstantiable": false,
                                "isFinal": true,
                                "genericTypes": [],
                                "isInterface": false,
                                "isAbstract": false,
                                "isMap": false
                              },
                              "int": {}
                            },
                            "type": "Number"
                          },
                          "key": {"name": "frequency"}
                        },
                        {
                          "annotations": {"description": {"value": "If false, the reconnection strategy will run in a separate, non-blocking thread"}},
                          "model": {
                            "annotations": {"default": "true"},
                            "type": "Boolean"
                          },
                          "key": {"name": "blocking"}
                        }
                      ]
                    }
                  ],
                  "annotations": {"typeId": "ReconnectionStrategy"},
                  "type": "Union"
                },
                "key": {"name": "reconnectionStrategy"}
              }
            ]
          },
          "required": false,
          "expressionSupport": "NOT_SUPPORTED",
          "hasDynamicType": false,
          "isConfigOverride": false,
          "dslConfiguration": {
            "allowTopLevelDefinition": false,
            "allowsInlineDefinition": true,
            "allowsReferences": false
          },
          "name": "reconnection",
          "layoutModel": {
            "password": false,
            "tabName": "Advanced",
            "query": false,
            "text": false,
            "order": 1
          },
          "allowedStereotypeModels": [],
          "isComponentId": false
        }],
        "exclusiveParametersModels": [],
        "showInDsl": false
      }]
    }],
    "version": "1.1.7",
    "privilegedArtifacts": [],
    "importedTypes": [{
      "format": "java",
      "annotations": {
        "extensibleType": {},
        "classInformation": {
          "implementedInterfaces": [],
          "parent": "",
          "classname": "org.mule.runtime.api.store.ObjectStore",
          "hasDefaultConstructor": false,
          "isInstantiable": false,
          "isFinal": false,
          "genericTypes": [],
          "isInterface": true,
          "isAbstract": true,
          "isMap": false
        },
        "typeId": "org.mule.runtime.api.store.ObjectStore",
        "typeAlias": {"value": "ObjectStore"}
      },
      "type": "Object",
      "fields": []
    }],
    "xmlDsl": {
      "schemaVersion": "1.1.7",
      "prefix": "os",
      "schemaLocation": "http://www.mulesoft.org/schema/mule/os/current/mule-os.xsd",
      "namespace": "http://www.mulesoft.org/schema/mule/os",
      "xsdFileName": "mule-os.xsd"
    },
    "operations": [
      {
        "kind": "operation",
        "executionType": "BLOCKING",
        "description": "Removes all the contents in the store.",
        "modelProperties": {},
        "parameterGroupModels": [{
          "name": "General",
          "layoutModel": {
            "password": false,
            "query": false,
            "text": false,
            "order": 1
          },
          "description": "",
          "modelProperties": {},
          "parameters": [{
            "role": "BEHAVIOUR",
            "description": "A reference to the ObjectStore to be used. If not defined, the runtime's default partition will be used",
            "modelProperties": {},
            "type": {
              "format": "java",
              "type": "@ref:org.mule.runtime.api.store.ObjectStore"
            },
            "required": false,
            "expressionSupport": "NOT_SUPPORTED",
            "hasDynamicType": false,
            "isConfigOverride": false,
            "dslConfiguration": {
              "allowTopLevelDefinition": false,
              "allowsInlineDefinition": false,
              "allowsReferences": true
            },
            "name": "objectStore",
            "layoutModel": {
              "password": false,
              "query": false,
              "text": false,
              "order": 1
            },
            "allowedStereotypeModels": [{
              "namespace": "OS",
              "type": "OBJECT_STORE"
            }],
            "isComponentId": false
          }],
          "exclusiveParametersModels": [],
          "showInDsl": false
        }],
        "output": {
          "hasDynamicType": false,
          "description": "",
          "modelProperties": {},
          "type": {
            "format": "java",
            "type": "Void"
          }
        },
        "outputAttributes": {
          "hasDynamicType": false,
          "description": "",
          "modelProperties": {},
          "type": {
            "format": "java",
            "type": "Void"
          }
        },
        "supportsStreaming": false,
        "requiresConnection": false,
        "blocking": true,
        "name": "clear",
        "stereotype": {
          "parent": {
            "parent": {
              "namespace": "MULE",
              "type": "PROCESSOR"
            },
            "namespace": "OS",
            "type": "PROCESSOR"
          },
          "namespace": "OS",
          "type": "CLEAR"
        },
        "nestedComponents": [],
        "transactional": false,
        "notifications": [],
        "errors": [
          "MULE:ANY",
          "OS:STORE_NOT_AVAILABLE"
        ]
      },
      {
        "displayModel": {"summary": "Returns whether the key is present or not"},
        "kind": "operation",
        "executionType": "BLOCKING",
        "description": "Checks if there is any value associated to the given key. If no value exist for the key, then false will be returned. <p> This operation is synchronized on the key level. No other operation will be able to access the same key on the same object store while this operation is running. If the runtime is running on cluster mode, this synchronization is also guaranteed across nodes.",
        "modelProperties": {},
        "parameterGroupModels": [
          {
            "name": "General",
            "layoutModel": {
              "password": false,
              "query": false,
              "text": false,
              "order": 1
            },
            "description": "",
            "modelProperties": {},
            "parameters": [
              {
                "role": "BEHAVIOUR",
                "description": "the key of the object to be removed",
                "modelProperties": {},
                "type": {
                  "format": "java",
                  "type": "String"
                },
                "required": true,
                "expressionSupport": "SUPPORTED",
                "hasDynamicType": false,
                "isConfigOverride": false,
                "dslConfiguration": {
                  "allowTopLevelDefinition": false,
                  "allowsInlineDefinition": false,
                  "allowsReferences": false
                },
                "name": "key",
                "layoutModel": {
                  "password": false,
                  "query": false,
                  "text": false,
                  "order": 1
                },
                "allowedStereotypeModels": [],
                "isComponentId": false
              },
              {
                "role": "BEHAVIOUR",
                "description": "A reference to the ObjectStore to be used. If not defined, the runtime's default partition will be used",
                "modelProperties": {},
                "type": {
                  "format": "java",
                  "type": "@ref:org.mule.runtime.api.store.ObjectStore"
                },
                "required": false,
                "expressionSupport": "NOT_SUPPORTED",
                "hasDynamicType": false,
                "isConfigOverride": false,
                "dslConfiguration": {
                  "allowTopLevelDefinition": false,
                  "allowsInlineDefinition": false,
                  "allowsReferences": true
                },
                "name": "objectStore",
                "layoutModel": {
                  "password": false,
                  "query": false,
                  "text": false,
                  "order": 2
                },
                "allowedStereotypeModels": [{
                  "namespace": "OS",
                  "type": "OBJECT_STORE"
                }],
                "isComponentId": false
              }
            ],
            "exclusiveParametersModels": [],
            "showInDsl": false
          },
          {
            "name": "Output",
            "layoutModel": {
              "password": false,
              "query": false,
              "text": false,
              "order": 2
            },
            "description": "",
            "modelProperties": {},
            "parameters": [
              {
                "displayModel": {"displayName": "Target Variable"},
                "role": "BEHAVIOUR",
                "description": "The name of a variable on which the operation's output will be placed",
                "modelProperties": {},
                "type": {
                  "format": "java",
                  "type": "String"
                },
                "required": false,
                "expressionSupport": "NOT_SUPPORTED",
                "hasDynamicType": false,
                "isConfigOverride": false,
                "dslConfiguration": {
                  "allowTopLevelDefinition": false,
                  "allowsInlineDefinition": false,
                  "allowsReferences": false
                },
                "name": "target",
                "layoutModel": {
                  "password": false,
                  "tabName": "Advanced",
                  "query": false,
                  "text": false,
                  "order": 3
                },
                "allowedStereotypeModels": [],
                "isComponentId": false
              },
              {
                "displayModel": {"displayName": "Target Value"},
                "role": "BEHAVIOUR",
                "defaultValue": "#[payload]",
                "description": "An expression that will be evaluated against the operation's output and the outcome of that expression will be stored in the target variable",
                "modelProperties": {},
                "type": {
                  "format": "java",
                  "type": "String"
                },
                "required": false,
                "expressionSupport": "REQUIRED",
                "hasDynamicType": false,
                "isConfigOverride": false,
                "dslConfiguration": {
                  "allowTopLevelDefinition": false,
                  "allowsInlineDefinition": false,
                  "allowsReferences": false
                },
                "name": "targetValue",
                "layoutModel": {
                  "password": false,
                  "tabName": "Advanced",
                  "query": false,
                  "text": false,
                  "order": 4
                },
                "allowedStereotypeModels": [],
                "isComponentId": false
              }
            ],
            "exclusiveParametersModels": [],
            "showInDsl": false
          }
        ],
        "output": {
          "hasDynamicType": false,
          "description": "",
          "modelProperties": {},
          "type": {
            "format": "java",
            "annotations": {"typeId": "boolean"},
            "type": "Boolean"
          }
        },
        "outputAttributes": {
          "hasDynamicType": false,
          "description": "",
          "modelProperties": {},
          "type": {
            "format": "java",
            "type": "Void"
          }
        },
        "supportsStreaming": false,
        "requiresConnection": false,
        "blocking": true,
        "name": "contains",
        "stereotype": {
          "parent": {
            "parent": {
              "namespace": "MULE",
              "type": "PROCESSOR"
            },
            "namespace": "OS",
            "type": "PROCESSOR"
          },
          "namespace": "OS",
          "type": "CONTAINS"
        },
        "nestedComponents": [],
        "transactional": false,
        "notifications": [],
        "errors": [
          "OS:INVALID_KEY",
          "MULE:ANY",
          "OS:STORE_NOT_AVAILABLE"
        ]
      },
      {
        "displayModel": {"summary": "Removes the value associated to the given key"},
        "kind": "operation",
        "executionType": "BLOCKING",
        "description": "Removes the value associated to the given key. If no value exist for the key, then a OS:KEY_NOT_FOUND error will be thrown. <p> This operation is synchronized on the key level. No other operation will be able to access the same key on the same object store while this operation is running. If the runtime is running on cluster mode, this synchronization is also guaranteed across nodes.",
        "modelProperties": {},
        "parameterGroupModels": [{
          "name": "General",
          "layoutModel": {
            "password": false,
            "query": false,
            "text": false,
            "order": 1
          },
          "description": "",
          "modelProperties": {},
          "parameters": [
            {
              "role": "BEHAVIOUR",
              "description": "the key of the object to be removed",
              "modelProperties": {},
              "type": {
                "format": "java",
                "type": "String"
              },
              "required": true,
              "expressionSupport": "SUPPORTED",
              "hasDynamicType": false,
              "isConfigOverride": false,
              "dslConfiguration": {
                "allowTopLevelDefinition": false,
                "allowsInlineDefinition": false,
                "allowsReferences": false
              },
              "name": "key",
              "layoutModel": {
                "password": false,
                "query": false,
                "text": false,
                "order": 1
              },
              "allowedStereotypeModels": [],
              "isComponentId": false
            },
            {
              "role": "BEHAVIOUR",
              "description": "A reference to the ObjectStore to be used. If not defined, the runtime's default partition will be used",
              "modelProperties": {},
              "type": {
                "format": "java",
                "type": "@ref:org.mule.runtime.api.store.ObjectStore"
              },
              "required": false,
              "expressionSupport": "NOT_SUPPORTED",
              "hasDynamicType": false,
              "isConfigOverride": false,
              "dslConfiguration": {
                "allowTopLevelDefinition": false,
                "allowsInlineDefinition": false,
                "allowsReferences": true
              },
              "name": "objectStore",
              "layoutModel": {
                "password": false,
                "query": false,
                "text": false,
                "order": 2
              },
              "allowedStereotypeModels": [{
                "namespace": "OS",
                "type": "OBJECT_STORE"
              }],
              "isComponentId": false
            }
          ],
          "exclusiveParametersModels": [],
          "showInDsl": false
        }],
        "output": {
          "hasDynamicType": false,
          "description": "",
          "modelProperties": {},
          "type": {
            "format": "java",
            "type": "Void"
          }
        },
        "outputAttributes": {
          "hasDynamicType": false,
          "description": "",
          "modelProperties": {},
          "type": {
            "format": "java",
            "type": "Void"
          }
        },
        "supportsStreaming": false,
        "requiresConnection": false,
        "blocking": true,
        "name": "remove",
        "stereotype": {
          "parent": {
            "parent": {
              "namespace": "MULE",
              "type": "PROCESSOR"
            },
            "namespace": "OS",
            "type": "PROCESSOR"
          },
          "namespace": "OS",
          "type": "REMOVE"
        },
        "nestedComponents": [],
        "transactional": false,
        "notifications": [],
        "errors": [
          "OS:INVALID_KEY",
          "MULE:ANY",
          "OS:STORE_NOT_AVAILABLE",
          "OS:KEY_NOT_FOUND"
        ]
      },
      {
        "displayModel": {"summary": "Retrieves the value stored for the given key"},
        "kind": "operation",
        "executionType": "BLOCKING",
        "description": "Retrieves the value stored for the given key. <p> If no value exists for the key, behaviour will depend on the defaultValue parameter. If the parameter was not provided or resolved to a null value, then a OS:KEY_NOT_FOUND error will be thrown. Otherwise, the defaultValue will be returned <b>BUT<\/b> keep in mind that such value <b>WILL NOT<\/b> be stored. <p> Finally, this operation is synchronized on the key level. No other operation will be able to access the same key on the same object store while this operation is running. If the runtime is running on cluster mode, this synchronization is also guaranteed across nodes.",
        "modelProperties": {},
        "parameterGroupModels": [
          {
            "name": "General",
            "layoutModel": {
              "password": false,
              "query": false,
              "text": false,
              "order": 1
            },
            "description": "",
            "modelProperties": {},
            "parameters": [
              {
                "role": "BEHAVIOUR",
                "description": "the key of the value to be retrieved",
                "modelProperties": {},
                "type": {
                  "format": "java",
                  "type": "String"
                },
                "required": true,
                "expressionSupport": "SUPPORTED",
                "hasDynamicType": false,
                "isConfigOverride": false,
                "dslConfiguration": {
                  "allowTopLevelDefinition": false,
                  "allowsInlineDefinition": false,
                  "allowsReferences": false
                },
                "name": "key",
                "layoutModel": {
                  "password": false,
                  "query": false,
                  "text": false,
                  "order": 1
                },
                "allowedStereotypeModels": [],
                "isComponentId": false
              },
              {
                "role": "PRIMARY_CONTENT",
                "description": "value to be returned if the key doesn't exist in the store",
                "modelProperties": {},
                "type": {
                  "format": "java",
                  "annotations": {
                    "classInformation": {
                      "implementedInterfaces": [],
                      "parent": "",
                      "classname": "java.io.Serializable",
                      "hasDefaultConstructor": false,
                      "isInstantiable": false,
                      "isFinal": false,
                      "genericTypes": [],
                      "isInterface": true,
                      "isAbstract": true,
                      "isMap": false
                    },
                    "typeId": "java.io.Serializable",
                    "typeAlias": {"value": "Serializable"}
                  },
                  "type": "Object",
                  "fields": []
                },
                "required": false,
                "expressionSupport": "SUPPORTED",
                "hasDynamicType": false,
                "isConfigOverride": false,
                "dslConfiguration": {
                  "allowTopLevelDefinition": false,
                  "allowsInlineDefinition": true,
                  "allowsReferences": false
                },
                "name": "defaultValue",
                "layoutModel": {
                  "password": false,
                  "query": false,
                  "text": false,
                  "order": 2
                },
                "allowedStereotypeModels": [],
                "isComponentId": false
              },
              {
                "role": "BEHAVIOUR",
                "description": "A reference to the ObjectStore to be used. If not defined, the runtime's default partition will be used",
                "modelProperties": {},
                "type": {
                  "format": "java",
                  "type": "@ref:org.mule.runtime.api.store.ObjectStore"
                },
                "required": false,
                "expressionSupport": "NOT_SUPPORTED",
                "hasDynamicType": false,
                "isConfigOverride": false,
                "dslConfiguration": {
                  "allowTopLevelDefinition": false,
                  "allowsInlineDefinition": false,
                  "allowsReferences": true
                },
                "name": "objectStore",
                "layoutModel": {
                  "password": false,
                  "query": false,
                  "text": false,
                  "order": 3
                },
                "allowedStereotypeModels": [{
                  "namespace": "OS",
                  "type": "OBJECT_STORE"
                }],
                "isComponentId": false
              }
            ],
            "exclusiveParametersModels": [],
            "showInDsl": false
          },
          {
            "name": "Output",
            "layoutModel": {
              "password": false,
              "query": false,
              "text": false,
              "order": 2
            },
            "description": "",
            "modelProperties": {},
            "parameters": [
              {
                "displayModel": {"displayName": "Target Variable"},
                "role": "BEHAVIOUR",
                "description": "The name of a variable on which the operation's output will be placed",
                "modelProperties": {},
                "type": {
                  "format": "java",
                  "type": "String"
                },
                "required": false,
                "expressionSupport": "NOT_SUPPORTED",
                "hasDynamicType": false,
                "isConfigOverride": false,
                "dslConfiguration": {
                  "allowTopLevelDefinition": false,
                  "allowsInlineDefinition": false,
                  "allowsReferences": false
                },
                "name": "target",
                "layoutModel": {
                  "password": false,
                  "tabName": "Advanced",
                  "query": false,
                  "text": false,
                  "order": 4
                },
                "allowedStereotypeModels": [],
                "isComponentId": false
              },
              {
                "displayModel": {"displayName": "Target Value"},
                "role": "BEHAVIOUR",
                "defaultValue": "#[payload]",
                "description": "An expression that will be evaluated against the operation's output and the outcome of that expression will be stored in the target variable",
                "modelProperties": {},
                "type": {
                  "format": "java",
                  "type": "String"
                },
                "required": false,
                "expressionSupport": "REQUIRED",
                "hasDynamicType": false,
                "isConfigOverride": false,
                "dslConfiguration": {
                  "allowTopLevelDefinition": false,
                  "allowsInlineDefinition": false,
                  "allowsReferences": false
                },
                "name": "targetValue",
                "layoutModel": {
                  "password": false,
                  "tabName": "Advanced",
                  "query": false,
                  "text": false,
                  "order": 5
                },
                "allowedStereotypeModels": [],
                "isComponentId": false
              }
            ],
            "exclusiveParametersModels": [],
            "showInDsl": false
          }
        ],
        "output": {
          "hasDynamicType": false,
          "description": "",
          "modelProperties": {},
          "type": {
            "format": "java",
            "annotations": {
              "classInformation": {
                "implementedInterfaces": [],
                "parent": "",
                "classname": "java.io.Serializable",
                "hasDefaultConstructor": false,
                "isInstantiable": false,
                "isFinal": false,
                "genericTypes": [],
                "isInterface": true,
                "isAbstract": true,
                "isMap": false
              },
              "typeId": "java.io.Serializable",
              "typeAlias": {"value": "Serializable"}
            },
            "type": "Object",
            "fields": []
          }
        },
        "outputAttributes": {
          "hasDynamicType": false,
          "description": "",
          "modelProperties": {},
          "type": {
            "format": "java",
            "type": "Void"
          }
        },
        "supportsStreaming": false,
        "requiresConnection": false,
        "blocking": true,
        "name": "retrieve",
        "stereotype": {
          "parent": {
            "parent": {
              "namespace": "MULE",
              "type": "PROCESSOR"
            },
            "namespace": "OS",
            "type": "PROCESSOR"
          },
          "namespace": "OS",
          "type": "RETRIEVE"
        },
        "nestedComponents": [],
        "transactional": false,
        "notifications": [],
        "errors": [
          "OS:INVALID_KEY",
          "MULE:ANY",
          "OS:STORE_NOT_AVAILABLE",
          "OS:KEY_NOT_FOUND"
        ]
      },
      {
        "kind": "operation",
        "executionType": "BLOCKING",
        "description": "Retrieves all the key value pairs in the object store",
        "modelProperties": {},
        "parameterGroupModels": [
          {
            "name": "General",
            "layoutModel": {
              "password": false,
              "query": false,
              "text": false,
              "order": 1
            },
            "description": "",
            "modelProperties": {},
            "parameters": [{
              "role": "BEHAVIOUR",
              "description": "A reference to the ObjectStore to be used. If not defined, the runtime's default partition will be used",
              "modelProperties": {},
              "type": {
                "format": "java",
                "type": "@ref:org.mule.runtime.api.store.ObjectStore"
              },
              "required": false,
              "expressionSupport": "NOT_SUPPORTED",
              "hasDynamicType": false,
              "isConfigOverride": false,
              "dslConfiguration": {
                "allowTopLevelDefinition": false,
                "allowsInlineDefinition": false,
                "allowsReferences": true
              },
              "name": "objectStore",
              "layoutModel": {
                "password": false,
                "query": false,
                "text": false,
                "order": 1
              },
              "allowedStereotypeModels": [{
                "namespace": "OS",
                "type": "OBJECT_STORE"
              }],
              "isComponentId": false
            }],
            "exclusiveParametersModels": [],
            "showInDsl": false
          },
          {
            "name": "Output",
            "layoutModel": {
              "password": false,
              "query": false,
              "text": false,
              "order": 2
            },
            "description": "",
            "modelProperties": {},
            "parameters": [
              {
                "displayModel": {"displayName": "Target Variable"},
                "role": "BEHAVIOUR",
                "description": "The name of a variable on which the operation's output will be placed",
                "modelProperties": {},
                "type": {
                  "format": "java",
                  "type": "String"
                },
                "required": false,
                "expressionSupport": "NOT_SUPPORTED",
                "hasDynamicType": false,
                "isConfigOverride": false,
                "dslConfiguration": {
                  "allowTopLevelDefinition": false,
                  "allowsInlineDefinition": false,
                  "allowsReferences": false
                },
                "name": "target",
                "layoutModel": {
                  "password": false,
                  "tabName": "Advanced",
                  "query": false,
                  "text": false,
                  "order": 2
                },
                "allowedStereotypeModels": [],
                "isComponentId": false
              },
              {
                "displayModel": {"displayName": "Target Value"},
                "role": "BEHAVIOUR",
                "defaultValue": "#[payload]",
                "description": "An expression that will be evaluated against the operation's output and the outcome of that expression will be stored in the target variable",
                "modelProperties": {},
                "type": {
                  "format": "java",
                  "type": "String"
                },
                "required": false,
                "expressionSupport": "REQUIRED",
                "hasDynamicType": false,
                "isConfigOverride": false,
                "dslConfiguration": {
                  "allowTopLevelDefinition": false,
                  "allowsInlineDefinition": false,
                  "allowsReferences": false
                },
                "name": "targetValue",
                "layoutModel": {
                  "password": false,
                  "tabName": "Advanced",
                  "query": false,
                  "text": false,
                  "order": 3
                },
                "allowedStereotypeModels": [],
                "isComponentId": false
              }
            ],
            "exclusiveParametersModels": [],
            "showInDsl": false
          }
        ],
        "output": {
          "hasDynamicType": false,
          "description": "",
          "modelProperties": {},
          "type": {
            "format": "java",
            "annotations": {"classInformation": {
              "implementedInterfaces": [],
              "parent": "",
              "classname": "java.util.Map",
              "hasDefaultConstructor": false,
              "isInstantiable": false,
              "isFinal": false,
              "genericTypes": [
                "java.lang.String",
                "java.io.Serializable"
              ],
              "isInterface": true,
              "isAbstract": true,
              "isMap": true
            }},
            "type": "Object",
            "fields": [],
            "open": {
              "annotations": {
                "classInformation": {
                  "implementedInterfaces": [],
                  "parent": "",
                  "classname": "java.io.Serializable",
                  "hasDefaultConstructor": false,
                  "isInstantiable": false,
                  "isFinal": false,
                  "genericTypes": [],
                  "isInterface": true,
                  "isAbstract": true,
                  "isMap": false
                },
                "typeId": "java.io.Serializable",
                "typeAlias": {"value": "Serializable"}
              },
              "type": "Object",
              "fields": []
            }
          }
        },
        "outputAttributes": {
          "hasDynamicType": false,
          "description": "",
          "modelProperties": {},
          "type": {
            "format": "java",
            "type": "Void"
          }
        },
        "supportsStreaming": false,
        "requiresConnection": false,
        "blocking": true,
        "name": "retrieveAll",
        "stereotype": {
          "parent": {
            "parent": {
              "namespace": "MULE",
              "type": "PROCESSOR"
            },
            "namespace": "OS",
            "type": "PROCESSOR"
          },
          "namespace": "OS",
          "type": "RETRIEVE_ALL"
        },
        "nestedComponents": [],
        "transactional": false,
        "notifications": [],
        "errors": [
          "MULE:ANY",
          "OS:STORE_NOT_AVAILABLE"
        ]
      },
      {
        "kind": "operation",
        "executionType": "BLOCKING",
        "description": "Returns a List containing all keys that the objectStore currently holds values for.",
        "modelProperties": {},
        "parameterGroupModels": [
          {
            "name": "General",
            "layoutModel": {
              "password": false,
              "query": false,
              "text": false,
              "order": 1
            },
            "description": "",
            "modelProperties": {},
            "parameters": [
              {
                "role": "BEHAVIOUR",
                "description": "A reference to the ObjectStore to be used. If not defined, the runtime's default partition will be used",
                "modelProperties": {},
                "type": {
                  "format": "java",
                  "type": "@ref:org.mule.runtime.api.store.ObjectStore"
                },
                "required": false,
                "expressionSupport": "NOT_SUPPORTED",
                "hasDynamicType": false,
                "isConfigOverride": false,
                "dslConfiguration": {
                  "allowTopLevelDefinition": false,
                  "allowsInlineDefinition": false,
                  "allowsReferences": true
                },
                "name": "objectStore",
                "layoutModel": {
                  "password": false,
                  "query": false,
                  "text": false,
                  "order": 1
                },
                "allowedStereotypeModels": [{
                  "namespace": "OS",
                  "type": "OBJECT_STORE"
                }],
                "isComponentId": false
              },
              {
                "role": "BEHAVIOUR",
                "description": "The mime type of the payload that this operation outputs.",
                "modelProperties": {"sinceMuleVersion": {"version": "4.2.0"}},
                "type": {
                  "format": "java",
                  "type": "String"
                },
                "required": false,
                "expressionSupport": "SUPPORTED",
                "hasDynamicType": false,
                "isConfigOverride": false,
                "dslConfiguration": {
                  "allowTopLevelDefinition": false,
                  "allowsInlineDefinition": false,
                  "allowsReferences": false
                },
                "name": "outputMimeType",
                "layoutModel": {
                  "password": false,
                  "tabName": "Advanced",
                  "query": false,
                  "text": false,
                  "order": 2
                },
                "allowedStereotypeModels": [],
                "isComponentId": false
              }
            ],
            "exclusiveParametersModels": [],
            "showInDsl": false
          },
          {
            "name": "Output",
            "layoutModel": {
              "password": false,
              "query": false,
              "text": false,
              "order": 2
            },
            "description": "",
            "modelProperties": {},
            "parameters": [
              {
                "displayModel": {"displayName": "Target Variable"},
                "role": "BEHAVIOUR",
                "description": "The name of a variable on which the operation's output will be placed",
                "modelProperties": {},
                "type": {
                  "format": "java",
                  "type": "String"
                },
                "required": false,
                "expressionSupport": "NOT_SUPPORTED",
                "hasDynamicType": false,
                "isConfigOverride": false,
                "dslConfiguration": {
                  "allowTopLevelDefinition": false,
                  "allowsInlineDefinition": false,
                  "allowsReferences": false
                },
                "name": "target",
                "layoutModel": {
                  "password": false,
                  "tabName": "Advanced",
                  "query": false,
                  "text": false,
                  "order": 3
                },
                "allowedStereotypeModels": [],
                "isComponentId": false
              },
              {
                "displayModel": {"displayName": "Target Value"},
                "role": "BEHAVIOUR",
                "defaultValue": "#[payload]",
                "description": "An expression that will be evaluated against the operation's output and the outcome of that expression will be stored in the target variable",
                "modelProperties": {},
                "type": {
                  "format": "java",
                  "type": "String"
                },
                "required": false,
                "expressionSupport": "REQUIRED",
                "hasDynamicType": false,
                "isConfigOverride": false,
                "dslConfiguration": {
                  "allowTopLevelDefinition": false,
                  "allowsInlineDefinition": false,
                  "allowsReferences": false
                },
                "name": "targetValue",
                "layoutModel": {
                  "password": false,
                  "tabName": "Advanced",
                  "query": false,
                  "text": false,
                  "order": 4
                },
                "allowedStereotypeModels": [],
                "isComponentId": false
              }
            ],
            "exclusiveParametersModels": [],
            "showInDsl": false
          }
        ],
        "output": {
          "hasDynamicType": false,
          "description": "",
          "modelProperties": {},
          "type": {
            "item": {"type": "String"},
            "format": "java",
            "annotations": {"classInformation": {
              "implementedInterfaces": ["java.util.Collection"],
              "parent": "",
              "classname": "java.util.List",
              "hasDefaultConstructor": false,
              "isInstantiable": false,
              "isFinal": false,
              "genericTypes": ["java.lang.String"],
              "isInterface": true,
              "isAbstract": true,
              "isMap": false
            }},
            "type": "Array"
          }
        },
        "outputAttributes": {
          "hasDynamicType": false,
          "description": "",
          "modelProperties": {},
          "type": {
            "format": "java",
            "type": "Void"
          }
        },
        "supportsStreaming": false,
        "requiresConnection": false,
        "blocking": true,
        "name": "retrieveAllKeys",
        "stereotype": {
          "parent": {
            "parent": {
              "namespace": "MULE",
              "type": "PROCESSOR"
            },
            "namespace": "OS",
            "type": "PROCESSOR"
          },
          "namespace": "OS",
          "type": "RETRIEVE_ALL_KEYS"
        },
        "nestedComponents": [],
        "transactional": false,
        "notifications": [],
        "errors": [
          "MULE:ANY",
          "OS:STORE_NOT_AVAILABLE"
        ]
      },
      {
        "displayModel": {"summary": "Stores the given value using the given key"},
        "kind": "operation",
        "executionType": "BLOCKING",
        "description": "Stores the given value using the given key. <p> This operation can be used either for storing new values or updating existing ones, depending on the value of the failIfPresent. When that parameter is set to false (default value) then any pre existing value associated to that key will be overwritten. If the parameter is set to true, then a OS:KEY_ALREADY_EXISTS error will be thrown instead. <p> Another important consideration is regarding null values. It is not allowed to store a null value. However, a common use case is to obtain a value (most likely by evaluating a expression or transformation), testing the value for not null, storing it if present and doing nothing otherwise. The failOnNullValue parameter simplifies this use case. On its default value of true, a OS:NULL_VALUE error is thrown if a null value is supplied. However, when set to false, a null value will cause this operation to do nothing, no error will be raised but no value will be altered either. <p> Finally, this operation is synchronized on the key level. No other operation will be able to access the same key on the same object store while this operation is running. If the runtime is running on cluster mode, this synchronization is also guaranteed across nodes.",
        "modelProperties": {},
        "parameterGroupModels": [{
          "name": "General",
          "layoutModel": {
            "password": false,
            "query": false,
            "text": false,
            "order": 1
          },
          "description": "",
          "modelProperties": {},
          "parameters": [
            {
              "role": "BEHAVIOUR",
              "description": "the key of the value to be stored",
              "modelProperties": {},
              "type": {
                "format": "java",
                "type": "String"
              },
              "required": true,
              "expressionSupport": "SUPPORTED",
              "hasDynamicType": false,
              "isConfigOverride": false,
              "dslConfiguration": {
                "allowTopLevelDefinition": false,
                "allowsInlineDefinition": false,
                "allowsReferences": false
              },
              "name": "key",
              "layoutModel": {
                "password": false,
                "query": false,
                "text": false,
                "order": 1
              },
              "allowedStereotypeModels": [],
              "isComponentId": false
            },
            {
              "role": "PRIMARY_CONTENT",
              "defaultValue": "#[payload]",
              "description": "the value to be stored. Should not be null if failOnNullValue is set to true",
              "modelProperties": {},
              "type": {
                "format": "java",
                "annotations": {
                  "classInformation": {
                    "implementedInterfaces": [],
                    "parent": "",
                    "classname": "java.io.Serializable",
                    "hasDefaultConstructor": false,
                    "isInstantiable": false,
                    "isFinal": false,
                    "genericTypes": [],
                    "isInterface": true,
                    "isAbstract": true,
                    "isMap": false
                  },
                  "typeId": "java.io.Serializable",
                  "typeAlias": {"value": "Serializable"}
                },
                "type": "Object",
                "fields": []
              },
              "required": false,
              "expressionSupport": "SUPPORTED",
              "hasDynamicType": false,
              "isConfigOverride": false,
              "dslConfiguration": {
                "allowTopLevelDefinition": false,
                "allowsInlineDefinition": true,
                "allowsReferences": false
              },
              "name": "value",
              "layoutModel": {
                "password": false,
                "query": false,
                "text": false,
                "order": 2
              },
              "allowedStereotypeModels": [],
              "isComponentId": false
            },
            {
              "role": "BEHAVIOUR",
              "defaultValue": "false",
              "description": "Whether to fail or update the pre existing value if the key already exists on the store",
              "modelProperties": {},
              "type": {
                "format": "java",
                "annotations": {"typeId": "boolean"},
                "type": "Boolean"
              },
              "required": false,
              "expressionSupport": "SUPPORTED",
              "hasDynamicType": false,
              "isConfigOverride": false,
              "dslConfiguration": {
                "allowTopLevelDefinition": false,
                "allowsInlineDefinition": false,
                "allowsReferences": false
              },
              "name": "failIfPresent",
              "layoutModel": {
                "password": false,
                "query": false,
                "text": false,
                "order": 3
              },
              "allowedStereotypeModels": [],
              "isComponentId": false
            },
            {
              "role": "BEHAVIOUR",
              "defaultValue": "true",
              "description": "Whether to fail or skip the operation if the value is null",
              "modelProperties": {},
              "type": {
                "format": "java",
                "annotations": {"typeId": "boolean"},
                "type": "Boolean"
              },
              "required": false,
              "expressionSupport": "SUPPORTED",
              "hasDynamicType": false,
              "isConfigOverride": false,
              "dslConfiguration": {
                "allowTopLevelDefinition": false,
                "allowsInlineDefinition": false,
                "allowsReferences": false
              },
              "name": "failOnNullValue",
              "layoutModel": {
                "password": false,
                "query": false,
                "text": false,
                "order": 4
              },
              "allowedStereotypeModels": [],
              "isComponentId": false
            },
            {
              "role": "BEHAVIOUR",
              "description": "A reference to the ObjectStore to be used. If not defined, the runtime's default partition will be used",
              "modelProperties": {},
              "type": {
                "format": "java",
                "type": "@ref:org.mule.runtime.api.store.ObjectStore"
              },
              "required": false,
              "expressionSupport": "NOT_SUPPORTED",
              "hasDynamicType": false,
              "isConfigOverride": false,
              "dslConfiguration": {
                "allowTopLevelDefinition": false,
                "allowsInlineDefinition": false,
                "allowsReferences": true
              },
              "name": "objectStore",
              "layoutModel": {
                "password": false,
                "query": false,
                "text": false,
                "order": 5
              },
              "allowedStereotypeModels": [{
                "namespace": "OS",
                "type": "OBJECT_STORE"
              }],
              "isComponentId": false
            }
          ],
          "exclusiveParametersModels": [],
          "showInDsl": false
        }],
        "output": {
          "hasDynamicType": false,
          "description": "",
          "modelProperties": {},
          "type": {
            "format": "java",
            "type": "Void"
          }
        },
        "outputAttributes": {
          "hasDynamicType": false,
          "description": "",
          "modelProperties": {},
          "type": {
            "format": "java",
            "type": "Void"
          }
        },
        "supportsStreaming": false,
        "requiresConnection": false,
        "blocking": true,
        "name": "store",
        "stereotype": {
          "parent": {
            "parent": {
              "namespace": "MULE",
              "type": "PROCESSOR"
            },
            "namespace": "OS",
            "type": "PROCESSOR"
          },
          "namespace": "OS",
          "type": "STORE"
        },
        "nestedComponents": [],
        "transactional": false,
        "notifications": [],
        "errors": [
          "OS:INVALID_KEY",
          "MULE:ANY",
          "OS:KEY_ALREADY_EXISTS",
          "OS:NULL_VALUE",
          "OS:STORE_NOT_AVAILABLE"
        ]
      }
    ],
    "vendor": "Mulesoft",
    "name": "ObjectStore",
    "privilegedPackages": [],
    "category": "COMMUNITY",
    "notifications": [],
    "errors": [
      {
        "parent": "MULE:CONNECTIVITY",
        "error": "OS:CONNECTIVITY",
        "handleable": true
      },
      {
        "parent": "MULE:ANY",
        "error": "MULE:CONNECTIVITY",
        "handleable": true
      },
      {
        "error": "MULE:ANY",
        "handleable": true
      },
      {
        "parent": "MULE:ANY",
        "error": "OS:STORE_NOT_AVAILABLE",
        "handleable": true
      },
      {
        "parent": "MULE:ANY",
        "error": "OS:INVALID_KEY",
        "handleable": true
      },
      {
        "parent": "MULE:ANY",
        "error": "OS:NULL_VALUE",
        "handleable": true
      },
      {
        "parent": "MULE:RETRY_EXHAUSTED",
        "error": "OS:RETRY_EXHAUSTED",
        "handleable": true
      },
      {
        "parent": "MULE:ANY",
        "error": "MULE:RETRY_EXHAUSTED",
        "handleable": true
      },
      {
        "parent": "MULE:ANY",
        "error": "OS:KEY_ALREADY_EXISTS",
        "handleable": true
      },
      {
        "parent": "MULE:ANY",
        "error": "OS:KEY_NOT_FOUND",
        "handleable": true
      },
      {
        "parent": "MULE:ANY",
        "error": "OS:ANY",
        "handleable": true
      }
    ]
  }
}